# Blender v3.0.0 OBJ File: 'flashlight.blend'
# www.blender.org
o Cube_Cube.001
v -0.125000 -0.625000 0.125000
v -0.250000 0.375000 0.250000
v -0.125000 -0.625000 -0.125000
v -0.250000 0.375000 -0.250000
v 0.125000 -0.625000 0.125000
v 0.250000 0.375000 0.250000
v 0.125000 -0.625000 -0.125000
v 0.250000 0.375000 -0.250000
v -0.250000 0.125000 0.250000
v -0.250000 0.125000 -0.250000
v 0.250000 0.125000 -0.250000
v 0.250000 0.125000 0.250000
v -0.125000 0.125000 -0.125000
v 0.125000 0.125000 -0.125000
v 0.125000 0.125000 0.125000
v -0.125000 0.125000 0.125000
v -0.187500 0.375000 0.187500
v -0.187500 0.375000 -0.187500
v 0.187500 0.375000 -0.187500
v 0.187500 0.375000 0.187500
v -0.187500 0.312500 0.187500
v -0.187500 0.312500 -0.187500
v 0.187500 0.312500 -0.187500
v 0.187500 0.312500 0.187500
vt 1.000000 0.875000
vt 1.000000 1.000000
vt 0.750000 1.000000
vt 0.750000 0.875000
vt 0.500000 1.000000
vt 0.500000 0.875000
vt 0.250000 1.000000
vt 0.250000 0.875000
vt 0.000000 1.000000
vt 0.000000 0.875000
vt 0.750000 0.000000
vt 0.875000 0.000000
vt 0.875000 0.125000
vt 0.750000 0.125000
vt 0.250000 0.000000
vt 0.250000 0.250000
vt 0.218750 0.218750
vt 0.218750 0.031250
vt 0.500000 0.000000
vt 0.750000 0.000000
vt 0.750000 0.250000
vt 0.500000 0.250000
vt 0.937500 0.500000
vt 0.937500 0.875000
vt 0.812500 0.875000
vt 0.812500 0.500000
vt 0.687500 0.500000
vt 0.687500 0.875000
vt 0.562500 0.875000
vt 0.562500 0.500000
vt 0.437500 0.500000
vt 0.437500 0.875000
vt 0.312500 0.875000
vt 0.312500 0.500000
vt 0.187500 0.500000
vt 0.187500 0.875000
vt 0.062500 0.875000
vt 0.062500 0.500000
vt 0.468750 0.250000
vt 0.281250 0.250000
vt 0.281250 0.218750
vt 0.468750 0.218750
vt 0.000000 0.250000
vt 0.000000 0.000000
vt 0.031250 0.031250
vt 0.031250 0.218750
vt 0.281250 0.031250
vt 0.468750 0.031250
vt 0.281250 0.000000
vt 0.468750 0.000000
vt 0.500000 0.031250
vt 0.500000 0.218750
vt 0.250000 0.218750
vt 0.250000 0.031250
vn -1.0000 0.0000 0.0000
vn 0.0000 0.0000 -1.0000
vn 1.0000 0.0000 0.0000
vn 0.0000 0.0000 1.0000
vn 0.0000 -1.0000 0.0000
vn 0.0000 1.0000 0.0000
s off
f 9/1/1 2/2/1 4/3/1 10/4/1
f 10/4/2 4/3/2 8/5/2 11/6/2
f 11/6/3 8/5/3 6/7/3 12/8/3
f 12/8/4 6/7/4 2/9/4 9/10/4
f 3/11/5 7/12/5 5/13/5 1/14/5
f 2/15/6 6/16/6 20/17/6 17/18/6
f 12/19/5 9/20/5 10/21/5 11/22/5
f 1/23/1 16/24/1 13/25/1 3/26/1
f 3/27/2 13/28/2 14/29/2 7/30/2
f 7/31/3 14/32/3 15/33/3 5/34/3
f 5/35/4 15/36/4 16/37/4 1/38/4
f 20/39/1 19/40/1 23/41/1 24/42/1
f 8/43/6 4/44/6 18/45/6 19/46/6
f 6/16/6 8/43/6 19/46/6 20/17/6
f 4/44/6 2/15/6 17/18/6 18/45/6
f 23/41/6 22/47/6 21/48/6 24/42/6
f 18/49/3 17/50/3 21/48/3 22/47/3
f 17/51/2 20/52/2 24/42/2 21/48/2
f 19/53/4 18/54/4 22/47/4 23/41/4
