# Blender v3.0.0 OBJ File: 'ikea_restaurant_kitchen_food_dish.blend'
# www.blender.org
o Cube_Cube.001
v 0.500000 -0.500000 0.500000
v 0.375000 -0.250000 0.375000
v -0.500000 -0.500000 0.500000
v -0.375000 -0.250000 0.375000
v 0.500000 -0.500000 -0.500000
v 0.375000 -0.250000 -0.375000
v -0.500000 -0.500000 -0.500000
v -0.375000 -0.250000 -0.375000
v 0.500000 -0.250000 0.500000
v -0.500000 -0.250000 0.500000
v -0.500000 -0.250000 -0.500000
v 0.500000 -0.250000 -0.500000
v 0.375000 -0.437500 0.375000
v -0.375000 -0.437500 0.375000
v -0.375000 -0.437500 -0.375000
v 0.375000 -0.437500 -0.375000
vt 0.000000 0.750000
vt 0.000000 0.625000
vt 0.250000 0.625000
vt 0.250000 0.750000
vt 0.250000 0.000000
vt 0.250000 0.125000
vt 0.000000 0.125000
vt 0.000000 0.000000
vt 0.562500 0.562500
vt 0.375000 0.562500
vt 0.375000 0.468750
vt 0.562500 0.468750
vt 0.031250 0.187500
vt 0.031250 0.562500
vt 0.218750 0.562500
vt 0.218750 0.187500
vt 0.375000 0.093750
vt 0.562500 0.093750
vt 0.609375 0.093750
vt 0.609375 0.468750
vt 0.328125 0.468750
vt 0.328125 0.093750
vt 0.375000 0.000000
vt 0.562500 0.000000
vn -1.0000 0.0000 0.0000
vn 1.0000 0.0000 0.0000
vn 0.0000 1.0000 0.0000
vn 0.0000 0.0000 1.0000
vn 0.0000 0.0000 -1.0000
s off
f 3/1/1 10/2/1 11/3/1 7/4/1
f 5/5/2 12/6/2 9/7/2 1/8/2
f 8/9/2 4/10/2 14/11/2 15/12/2
f 2/13/3 4/14/3 10/2/3 9/7/3
f 4/14/3 8/15/3 11/3/3 10/2/3
f 8/15/3 6/16/3 12/6/3 11/3/3
f 6/16/3 2/13/3 9/7/3 12/6/3
f 15/12/3 14/11/3 13/17/3 16/18/3
f 6/19/4 8/20/4 15/12/4 16/18/4
f 4/21/5 2/22/5 13/17/5 14/11/5
f 2/23/1 6/24/1 16/18/1 13/17/1
